{
  "kind": "collectionType",
  "collectionName": "wholemenus",
  "info": {
    "name": "wholemenu"
  },
  "options": {
    "increments": true,
    "timestamps": true
  },
  "attributes": {
    "Product": {
      "model": "file",
      "via": "related",
      "allowedTypes": [
        "images",
        "files",
        "videos"
      ],
      "plugin": "upload",
      "required": false
    },
    "Pname": {
      "type": "string"
    },
    "Pprice": {
      "type": "decimal"
    }
  }
}
